…
``` r
# Accessing the data, for example, round 1, Australian GP 2026:

pits(1, 2026) -> pitdata
```

    ## Australian Grand Prix 2026 / Round: 1

``` r
pitdata
```

    ## # A tibble: 30 × 8
    ##     Pos. Team         Driver     `Time (sec)`   Lap Points Round  Year
    ##    <dbl> <chr>        <chr>             <dbl> <dbl>  <dbl> <int> <dbl>
    ##  1     1 Mercedes     Russell            2.17    12     25     1  2026
    ##  2     2 Ferrari      Leclerc            2.22    25     18     1  2026
    ##  3     3 Red Bull     Verstappen         2.24    41     15     1  2026
    ##  4     4 Ferrari      Hamilton           2.26    28     12     1  2026
    ##  5     5 Red Bull     Verstappen         2.4     18      0     1  2026
    ##  6     6 Racing Bulls Lindblad           2.42    18     10     1  2026
    ##  7     7 Mercedes     Antonelli          2.49    12      8     1  2026
    ##  8     8 McLaren      Norris             2.52    34      6     1  2026
    ##  9     9 Racing Bulls Lawson             2.59    33      4     1  2026
    ## 10    10 Williams     Albon              2.63    33      2     1  2026
    ## # ℹ 20 more rows
…
